…
    ## # A tibble: 1 × 3
    ##   batch_ts            type           n
    ##   <dttm>              <chr>      <int>
    ## 1 2024-03-10 15:33:12 boardgame 120176

most recent batch of games data loaded to GCS:

    ## # A tibble: 1 × 3
    ##   batch_ts            type           n
    ##   <dttm>              <chr>      <int>
    ## 1 2024-03-10 15:33:12 boardgame 120173

new games in most recent batch:

    ## # A tibble: 262 × 3
    ##    game_id yearpublished name                             
    ##      <int>         <int> <chr>                            
    ##  1  415472          2025 Tango                            
    ##  2  415493          2025 Revamp: the haunted mansion      
    ##  3  415524          2025 Super Boss Monster               
    ##  4  415829          2025 The Dead Keep                    
    ##  5  415843          2025 Puerto Rico 1897: Special Edition
    ##  6  415845          2025 Grimcoven                        
    ##  7  415848          2025 Lands of Evershade               
    ##  8  415885          2025 Napoleon’s Counterstrike         
    ##  9  416079          2025 March of the Ants: Second Edition
    ## 10  416528          2025 Yield                            
    ## # ℹ 252 more rows
